<svg width="276" height="501" viewBox="0 0 276 501" fill="none" xmlns="http://www.w3.org/2000/svg">
<g clip-path="url(#clip0_923_25308)">
<rect width="276" height="500" transform="translate(0 0.255127)" fill="#A7E691"/>
<path d="M71.6948 74.4145C76.3465 85.6048 72.8542 99.9516 64.095 103.184C53.1214 107.234 46.6009 103.433 43.1254 92.6251C39.6498 81.8175 42.7092 69.8017 49.7608 65.408C58.9411 61.3622 68.2192 63.6069 71.6948 74.4145Z" fill="#6747ED"/>
<mask id="mask0_923_25308" style="mask-type:alpha" maskUnits="userSpaceOnUse" x="41" y="63" width="33" height="42">
<path d="M71.6948 74.4145C76.3465 85.6048 72.8542 99.9516 64.095 103.184C53.1214 107.234 46.6009 103.433 43.1254 92.6251C39.6498 81.8175 42.7092 69.8017 49.7608 65.408C58.9411 61.3622 68.2192 63.6069 71.6948 74.4145Z" fill="#038159"/>
</mask>
<g mask="url(#mask0_923_25308)">
<line y1="-0.5" x2="9.12864" y2="-0.5" transform="matrix(-0.99865 -0.0519424 0.0499004 -0.998754 50.2598 71.1968)" stroke="#0C0F12"/>
<line y1="-0.5" x2="9.12646" y2="-0.5" transform="matrix(-0.995783 0.0917432 -0.0929995 -0.995666 48.4043 89.8828)" stroke="#0C0F12"/>
<line y1="-0.5" x2="9.12593" y2="-0.5" transform="matrix(-0.989535 0.144295 -0.145229 -0.989398 53.2891 100.044)" stroke="#0C0F12"/>
<line y1="-0.5" x2="9.12593" y2="-0.5" transform="matrix(-0.989535 0.144295 -0.145229 -0.989398 54.0801 101.223)" stroke="#0C0F12"/>
<line y1="-0.5" x2="9.12646" y2="-0.5" transform="matrix(-0.995783 0.0917432 -0.0929995 -0.995666 48.9336 90.4424)" stroke="#0C0F12"/>
<line y1="-0.5" x2="9.12864" y2="-0.5" transform="matrix(-0.99865 -0.0519425 0.0499003 -0.998754 50.6172 70.0083)" stroke="#0C0F12"/>
<line y1="-0.5" x2="9.12976" y2="-0.5" transform="matrix(-0.994163 -0.107888 0.105593 -0.994409 55.6133 65.5015)" stroke="white"/>
</g>
<path d="M72.3625 76.4703C75.5736 86.4553 72.43 97.8891 65.6176 102.134C58.8052 106.378 50.5848 102.025 47.3738 92.0402C44.1627 82.0552 47.3062 70.6215 54.1187 66.3768C60.9311 62.1321 69.1515 66.4853 72.3625 76.4703Z" fill="#6747ED" stroke="#0C0F12"/>
<mask id="mask1_923_25308" style="mask-type:alpha" maskUnits="userSpaceOnUse" x="48" y="66" width="24" height="36">
<path d="M69.8429 77.1392C71.2247 81.4695 71.3177 86.1815 70.3505 90.2911C69.3814 94.4086 67.3636 97.8631 64.5835 99.7504C61.8303 101.619 58.8224 101.62 56.1451 100.111C53.447 98.5893 51.0535 95.5101 49.6705 91.1761C48.2887 86.8457 48.1957 82.1338 49.1629 78.0242C50.132 73.9067 52.1497 70.4521 54.9299 68.5648C57.6831 66.6958 60.691 66.6949 63.3683 68.2046C66.0663 69.7259 68.4599 72.8051 69.8429 77.1392Z" fill="#038159" stroke="white"/>
</mask>
<g mask="url(#mask1_923_25308)">
<rect width="27.1491" height="33.9463" rx="13.5746" transform="matrix(0.772233 -0.635339 0.29037 0.956914 44.3496 76.552)" fill="url(#paint0_radial_923_25308)"/>
<path fill-rule="evenodd" clip-rule="evenodd" d="M60.2444 86.393C58.6938 87.6687 56.8637 86.7641 56.1347 84.3617C55.4057 81.9593 56.0653 79.0064 57.6158 77.7307C59.1664 76.455 60.9965 77.3596 61.7255 79.762C62.4545 82.1644 61.7949 85.1173 60.2444 86.393ZM56.9587 75.5651C59.2737 73.6605 62.0348 75.0253 63.1232 78.6121C64.2116 82.1988 63.2164 86.654 60.9015 88.5586C58.5866 90.4631 55.8254 89.0984 54.737 85.5116C53.6486 81.9249 54.6438 77.4697 56.9587 75.5651ZM65.0007 85.6089C65.4181 85.8152 65.6235 86.4919 65.4628 87.1316L63.9816 93.7626C63.8312 94.436 63.3944 94.7954 62.9989 94.5711C62.5815 94.3648 62.3761 93.6881 62.5368 93.0484L64.018 86.4174C64.1466 85.7619 64.6052 85.3846 65.0007 85.6089ZM62.8999 72.0302C63.0847 72.6393 62.9227 73.3646 62.5296 73.688C62.1365 74.0114 61.687 73.7892 61.5022 73.1802C61.3174 72.5711 61.4794 71.8458 61.8725 71.5224C62.2438 71.2169 62.7151 71.4212 62.8999 72.0302Z" fill="white"/>
</g>
<path d="M69.8429 77.1392C71.2247 81.4695 71.3177 86.1815 70.3505 90.2911C69.3814 94.4086 67.3636 97.8631 64.5835 99.7504C61.8303 101.619 58.8224 101.62 56.1451 100.111C53.447 98.5893 51.0535 95.5101 49.6705 91.1761C48.2887 86.8457 48.1957 82.1338 49.1629 78.0242C50.132 73.9067 52.1497 70.4521 54.9299 68.5648C57.6831 66.6958 60.691 66.6949 63.3683 68.2046C66.0663 69.7259 68.4599 72.8051 69.8429 77.1392Z" stroke="white"/>
<path d="M219.583 57.7375C220.489 57.5872 221.1 56.7316 220.95 55.8265C220.8 54.9214 219.944 54.3096 219.039 54.4598C218.134 54.6101 217.522 55.4657 217.672 56.3707C217.823 57.2758 218.678 57.8877 219.583 57.7375Z" fill="white"/>
<path fill-rule="evenodd" clip-rule="evenodd" d="M219.001 54.2304C217.97 54.4015 217.272 55.3777 217.443 56.4087C217.614 57.4396 218.59 58.1378 219.621 57.9666C220.652 57.7954 221.35 56.8193 221.179 55.7883C221.008 54.7573 220.032 54.0592 219.001 54.2304ZM219.077 54.689C219.855 54.5598 220.591 55.0866 220.721 55.8644C220.85 56.6423 220.323 57.3788 219.545 57.508C218.767 57.6371 218.031 57.1103 217.902 56.3325C217.772 55.5547 218.299 54.8181 219.077 54.689Z" fill="#0B0F12"/>
<path d="M239.238 38.4324C235.666 40.1565 234.569 41.6895 234.097 45.6197C234.029 46.1903 233.264 46.3173 233.015 45.7994C231.291 42.2276 229.758 41.1311 225.828 40.6589C225.257 40.5903 225.13 39.8259 225.648 39.5766C229.22 37.8525 230.316 36.3195 230.788 32.3892C230.857 31.8186 231.621 31.6917 231.871 32.2095C233.595 35.7814 235.128 36.8778 239.058 37.35C239.629 37.4186 239.756 38.183 239.238 38.4324Z" fill="white"/>
<path fill-rule="evenodd" clip-rule="evenodd" d="M239.339 38.6415C240.068 38.2905 239.889 37.2155 239.087 37.1188C237.17 36.8885 235.836 36.513 234.773 35.7527C233.71 34.9923 232.922 33.8501 232.081 32.1084C231.73 31.38 230.655 31.5584 230.558 32.3612C230.328 34.2776 229.953 35.6117 229.192 36.6749C228.432 37.738 227.29 38.5258 225.548 39.3667C224.819 39.7176 224.998 40.7927 225.801 40.8894C227.717 41.1197 229.051 41.4951 230.114 42.2555C231.178 43.0159 231.965 44.1581 232.806 45.8998C233.157 46.6282 234.232 46.4497 234.329 45.647C234.559 43.7306 234.935 42.3964 235.695 41.3333C236.455 40.2702 237.598 39.4823 239.339 38.6415ZM239.138 38.2225C237.308 39.1057 236.116 39.9464 235.317 41.063C234.518 42.1804 234.109 43.5778 233.867 45.5917C233.827 45.9302 233.373 46.0055 233.225 45.6983C232.342 43.8681 231.501 42.6762 230.385 41.8776C229.267 41.0785 227.87 40.6696 225.856 40.4278C225.518 40.3872 225.442 39.9335 225.749 39.7857C227.58 38.9025 228.772 38.0618 229.57 36.9451C230.369 35.8278 230.778 34.4303 231.02 32.4165C231.061 32.078 231.514 32.0027 231.662 32.3099C232.545 34.1401 233.386 35.332 234.503 36.1306C235.62 36.9297 237.017 37.3386 239.031 37.5804C239.37 37.621 239.445 38.0747 239.138 38.2225Z" fill="#0B0F12"/>
<path d="M86.4208 148.578C87.8156 148.346 88.7585 147.028 88.5269 145.633C88.2954 144.238 86.9769 143.295 85.5821 143.527C84.1873 143.759 83.2444 145.077 83.476 146.472C83.7075 147.867 85.026 148.81 86.4208 148.578Z" fill="white"/>
<path fill-rule="evenodd" clip-rule="evenodd" d="M85.5439 143.297C84.0237 143.55 82.9941 144.989 83.2465 146.509C83.4989 148.03 84.9385 149.059 86.4587 148.807C87.9788 148.554 89.0085 147.115 88.7561 145.595C88.5037 144.074 87.064 143.045 85.5439 143.297ZM85.62 143.756C86.887 143.545 88.0871 144.404 88.2974 145.671C88.5078 146.938 87.6495 148.138 86.3825 148.348C85.1155 148.559 83.9155 147.7 83.7051 146.433C83.4947 145.166 84.353 143.966 85.62 143.756Z" fill="#0B0F12"/>
<path d="M95.2318 162.554C97.1096 166.446 98.7781 167.639 103.068 168.158C103.69 168.231 103.829 169.069 103.264 169.338C99.372 171.216 98.1787 172.885 97.6594 177.175C97.5867 177.796 96.7489 177.935 96.4792 177.371C94.6014 173.479 92.9329 172.285 88.643 171.766C88.0214 171.693 87.8823 170.855 88.4471 170.586C92.339 168.708 93.5323 167.039 94.0516 162.75C94.1243 162.128 94.9621 161.989 95.2318 162.554Z" fill="white"/>
<path fill-rule="evenodd" clip-rule="evenodd" d="M95.4416 162.454C95.0716 161.678 93.9207 161.869 93.8211 162.723C93.5671 164.818 93.1557 166.276 92.3255 167.437C91.4947 168.598 90.2483 169.459 88.3465 170.376C87.5716 170.746 87.7627 171.897 88.6162 171.997C90.7118 172.251 92.1695 172.662 93.3309 173.492C94.4918 174.323 95.3523 175.57 96.27 177.471C96.6399 178.246 97.7908 178.055 97.8903 177.202C98.1444 175.106 98.5558 173.648 99.386 172.487C100.217 171.326 101.463 170.466 103.365 169.548C104.14 169.178 103.949 168.027 103.095 167.928C101 167.674 99.542 167.262 98.3806 166.432C97.2197 165.601 96.3592 164.355 95.4415 162.453L95.4416 162.454ZM95.0225 162.654L95.0226 162.654C95.9826 164.645 96.8953 165.941 98.1103 166.81C99.3253 167.679 100.847 168.124 103.041 168.389L103.041 168.389C103.431 168.435 103.518 168.959 103.164 169.129L103.163 169.129C101.173 170.089 99.877 171.002 99.0081 172.217C98.1391 173.432 97.6942 174.953 97.4288 177.147L97.4289 177.148C97.3831 177.537 96.8584 177.624 96.689 177.27L96.6889 177.27C95.7289 175.28 94.8162 173.983 93.6012 173.114C92.3862 172.245 90.8646 171.801 88.6709 171.535L88.6703 171.535C88.2806 171.489 88.1935 170.965 88.5474 170.795L88.5481 170.795C90.5383 169.835 91.8345 168.923 92.7034 167.708C93.5724 166.493 94.0173 164.971 94.2827 162.777L94.2825 162.777C94.3284 162.387 94.8531 162.3 95.0225 162.654Z" fill="#0B0F12"/>
<path d="M61.1018 150.344C63.5842 155.493 65.7945 157.073 71.4693 157.759C72.2906 157.861 72.4733 158.962 71.7282 159.318C66.5794 161.8 64.9985 164.011 64.3132 169.685C64.2108 170.507 63.1101 170.69 62.7539 169.944C60.2716 164.796 58.0612 163.215 52.3865 162.529C51.5652 162.427 51.3824 161.326 52.1276 160.97C57.2764 158.488 58.8573 156.277 59.5425 150.603C59.6449 149.781 60.7456 149.599 61.1018 150.344Z" fill="white"/>
<path fill-rule="evenodd" clip-rule="evenodd" d="M61.3122 150.243C60.8557 149.288 59.4441 149.52 59.3129 150.573C59.3124 150.574 59.3124 150.574 59.3125 150.574C58.9756 153.363 58.4254 155.302 57.3203 156.847C56.2152 158.393 54.5577 159.54 52.0276 160.76C51.0729 161.216 51.3053 162.628 52.3583 162.759C52.359 162.76 52.359 162.76 52.3596 162.759C55.1482 163.096 57.0876 163.647 58.6327 164.752C60.1779 165.857 61.3252 167.514 62.5452 170.044C63.0016 170.999 64.4132 170.767 64.5444 169.714C64.5449 169.713 64.5449 169.713 64.5448 169.712C64.8817 166.924 65.4319 164.984 66.537 163.439C67.6421 161.894 69.2996 160.747 71.8297 159.527C72.7845 159.07 72.552 157.659 71.499 157.528C71.4983 157.527 71.4983 157.527 71.4977 157.527C68.7091 157.19 66.7697 156.64 65.2246 155.535C63.6794 154.43 62.5321 152.772 61.3121 150.242L61.3122 150.243ZM60.893 150.443C60.8931 150.444 60.8931 150.444 60.8931 150.444C62.1555 153.062 63.3545 154.77 64.9538 155.914C66.553 157.057 68.5556 157.64 71.4412 157.989C72.0308 158.062 72.1638 158.852 71.6288 159.108C71.6282 159.108 71.6282 159.108 71.6282 159.108C69.0096 160.37 67.3022 161.569 66.1583 163.168C65.0151 164.768 64.4321 166.77 64.083 169.656C64.01 170.245 63.2202 170.378 62.9643 169.843C62.9642 169.843 62.9642 169.843 62.9642 169.843C61.7018 167.224 60.5028 165.517 58.9035 164.373C57.3043 163.23 55.3017 162.647 52.4161 162.298C51.8265 162.225 51.6935 161.435 52.2285 161.179C52.2291 161.179 52.2291 161.179 52.2291 161.179C54.8477 159.917 56.5551 158.718 57.699 157.118C58.8422 155.519 59.4252 153.516 59.7743 150.631C59.8473 150.041 60.6371 149.908 60.893 150.443Z" fill="#0B0F12"/>
<path d="M139.001 49.4777C138.452 50.2443 137.989 51.0934 137.626 52.0356C136.624 54.6254 136.302 57.4879 136.75 60.2549C137.556 65.2192 136.447 64.3817 137.109 68.1234C141.482 92.852 159.721 72.3619 169.616 64.9993C169.616 64.9993 170.477 63.0971 167.539 61.0222C164.601 58.9472 163.749 59.0286 163.472 56.6517C163.076 53.2277 161.137 49.351 158.71 47.071C156.439 44.9328 153.737 44.1271 150.799 43.9905C147.747 43.8439 144.673 44.757 142.12 46.4952C140.887 47.3337 139.841 48.3161 139.001 49.4777Z" fill="#0B0F12"/>
<path d="M139.393 58.4564C138.647 53.8694 140.956 49.1483 145.362 47.0293C150.718 44.4576 157.149 46.7082 159.728 52.0696C161.729 56.2312 160.817 61.0345 157.801 64.1814L157.832 64.9195C157.832 64.9195 153.415 75.9645 147.055 73.0728C141.32 70.4706 139.663 60.4065 139.393 58.4564Z" fill="#F4BEB1"/>
<path d="M154.454 68.6864L155.094 69.746L157.38 73.5517L161.036 79.6397L171.528 70.2798L159.395 58.4851L154.454 68.6864Z" fill="#F4BEB1"/>
<path d="M155.093 69.7468L157.379 73.5587C158.896 70.3255 157.594 64.3576 157.594 64.3576L155.093 69.7468Z" fill="#0B0F12"/>
<path d="M147.919 59.8464C147.913 59.6534 147.93 59.4572 147.98 59.2631C147.999 59.173 148.031 59.0813 148.09 59.0109C148.323 58.7363 148.761 58.8846 148.947 59.0601C149.264 59.3746 149.422 59.954 149.493 60.3948C149.538 60.689 149.508 61.0306 149.275 61.2114C149.061 61.3836 148.725 61.353 148.498 61.1954C148.265 61.0387 148.13 60.7752 148.046 60.5174C147.973 60.2958 147.93 60.07 147.925 59.8394L147.919 59.8464Z" fill="#0B0F12"/>
<path d="M142.045 61.7123C142.038 61.5132 142.062 61.3162 142.125 61.1328C142.258 60.7651 142.7 60.7565 142.967 61.0214C143.254 61.3023 143.391 61.8157 143.456 62.2135C143.497 62.477 143.467 62.7747 143.264 62.9392C143.072 63.0959 142.775 63.0665 142.574 62.9241C142.368 62.7826 142.243 62.549 142.169 62.3211C142.107 62.1355 142.067 61.9221 142.058 61.7168L142.045 61.7123Z" fill="#0B0F12"/>
<path d="M145.221 64.1621C145.163 63.9195 145.226 63.6361 145.238 63.3969C145.262 63.0123 145.286 62.6215 145.31 62.2369C145.327 61.897 145.858 61.9393 145.834 62.2801C145.805 62.7655 145.734 63.2688 145.748 63.7546C145.759 64.2597 146.148 64.4584 146.571 64.6837C146.874 64.8438 146.575 65.2772 146.279 65.1225C145.916 64.9267 145.323 64.605 145.221 64.1682L145.221 64.1621Z" fill="#0B0F12"/>
<path d="M146.426 57.2291C146.84 56.7679 147.656 56.5037 148.238 56.4142C148.728 56.3369 149.248 56.3932 149.68 56.63C149.801 56.6952 149.911 56.7744 149.983 56.89C150.055 57.0056 150.075 57.1592 150.003 57.2751C149.931 57.3971 149.781 57.442 149.642 57.4791C148.839 57.6978 148.021 57.8436 147.207 57.9824C147.03 58.0121 146.853 58.0419 146.679 58.0023C146.505 57.9628 146.333 57.848 146.291 57.6722C146.252 57.521 146.313 57.363 146.416 57.243C146.416 57.243 146.426 57.2291 146.432 57.2222L146.426 57.2291Z" fill="#0B0F12"/>
<path d="M142.982 58.227C143.127 58.2828 143.261 58.3964 143.293 58.5423C143.335 58.7181 143.246 58.8986 143.111 59.0164C142.977 59.1343 142.804 59.1947 142.636 59.2543C141.853 59.5267 141.062 59.7877 140.257 59.9818C140.117 60.0128 139.965 60.0454 139.843 59.974C139.728 59.9079 139.664 59.76 139.672 59.6277C139.68 59.4954 139.738 59.3689 139.816 59.2522C140.086 58.8351 140.516 58.5406 140.982 58.3727C141.537 58.1742 142.385 58.0121 142.963 58.2233C142.969 58.2224 142.976 58.2278 142.983 58.2331L142.982 58.227Z" fill="#0B0F12"/>
<path d="M138.746 55.2511C138.746 55.2511 141.969 53.5243 144.225 51.5252C146.48 49.5262 150.321 50.0562 150.321 50.0562L154.671 55.3895C154.671 55.3895 155.683 51.1727 158.099 53.0853C159.657 54.3174 159.546 56.1766 159.269 57.345C159.226 57.5383 159.174 57.7139 159.131 57.8573C159.016 58.2164 158.92 58.4354 158.92 58.4354L160.43 59.4988L160.579 59.2601L160.871 58.7713L162.026 56.8678C162.026 56.8678 161.209 53.3868 160.746 52.5789C160.291 51.7826 156.903 47.7725 156.903 47.7725C156.903 47.7725 152.889 43.9952 151.653 44.0087C150.416 44.016 148.232 44.1923 146.958 44.5797C145.684 44.9732 140.247 49.4877 140.036 49.5907C139.824 49.6937 138.746 55.2511 138.746 55.2511Z" fill="#0B0F12"/>
<path d="M139.64 53.5579C139.64 53.5579 141.181 53.4853 143.734 51.0405C146.945 52.723 149.146 51.2064 150.747 52.2514C152.355 53.2956 154.159 56.821 154.159 56.821C154.159 56.821 155.583 53.8753 157.386 56.119C159.243 58.4308 156.83 62.1702 156.83 62.1702L157.814 63.6533L158.787 61.5111L159.149 61.1257L160.581 59.6169C160.581 59.6169 160.521 56.2796 160.261 55.445C160.002 54.6226 157.698 50.3003 157.698 50.3003C157.698 50.3003 153.352 47.6926 152.221 47.4607C151.089 47.2228 150.481 45.3211 149.238 45.4292C147.996 45.5372 142.141 48.5938 141.929 48.6469C141.717 48.6999 139.635 53.5648 139.635 53.5648L139.64 53.5579Z" fill="#0B0F12"/>
<path d="M148.98 65.5902C148.083 66.4216 146.46 67.2429 145.273 66.4056C145.046 66.248 144.785 66.589 145.012 66.7465C146.35 67.695 148.179 66.9153 149.237 65.9313C149.437 65.7423 149.18 65.4012 148.973 65.591L148.98 65.5902Z" fill="#0B0F12"/>
<path d="M155.645 46.7263C155.264 46.7767 154.763 46.7741 154.189 46.5937C152.917 46.193 152.562 45.0706 152.549 45.0223C152.515 44.908 152.581 44.7929 152.689 44.7537C152.803 44.7198 152.924 44.7851 152.957 44.8933C152.968 44.9293 153.265 45.8468 154.316 46.183C155.406 46.5265 156.192 46.1411 156.205 46.1395C156.31 46.088 156.441 46.127 156.493 46.2389C156.544 46.3446 156.505 46.4749 156.4 46.5264C156.376 46.5358 156.1 46.6723 155.652 46.7316L155.645 46.7263Z" fill="#0B0F12"/>
<path d="M139.664 49.8213C139.602 49.8294 139.544 49.8121 139.494 49.7687C139.403 49.6932 139.397 49.5564 139.473 49.4651C139.511 49.4226 140.402 48.4043 141.329 47.6127C141.419 47.5382 141.551 47.5458 141.632 47.6351C141.706 47.7253 141.7 47.8638 141.609 47.9382C140.711 48.7074 139.808 49.7334 139.798 49.7473C139.76 49.7898 139.713 49.8148 139.664 49.8213Z" fill="#0B0F12"/>
<path d="M143.798 50.9506L143.774 50.9539C143.655 50.957 143.556 50.864 143.553 50.7517C143.546 50.6464 143.482 48.1788 146.282 45.2886C146.365 45.2026 146.502 45.2032 146.588 45.2856C146.674 45.3681 146.674 45.5057 146.591 45.5916C143.928 48.3386 143.986 50.7133 143.982 50.7325C143.984 50.8447 143.903 50.9368 143.798 50.9506Z" fill="#0B0F12"/>
<path d="M95.0522 89.4982C94.65 88.968 93.9755 88.7281 93.3561 88.5545C91.9276 88.1633 90.4919 87.8047 89.0461 87.4604C86.134 86.7626 83.1985 86.1504 80.2527 85.6279C78.763 85.3599 77.2651 85.1185 75.7703 84.8955C75.0356 84.785 74.2959 84.6816 73.5571 84.5843C72.8887 84.4942 72.1275 84.3001 71.4853 84.5953C70.9023 84.868 70.694 85.5435 70.8118 86.1397C70.9398 86.7971 71.4633 87.2632 71.9726 87.6436C73.0717 88.4727 74.2503 89.2133 75.4493 89.8876C75.5114 89.9213 75.5736 89.955 75.6357 89.9886C75.3971 90.2168 75.1657 90.45 74.9423 90.6944C74.5365 91.1263 74.1276 91.5775 73.795 92.0725C73.4768 92.5401 73.2706 93.1147 73.415 93.6814C73.5603 94.2542 74.0299 94.6224 74.6046 94.6777C75.1335 94.7219 75.6605 94.4899 76.1253 94.2619C76.7237 93.9677 77.3221 93.6736 77.9123 93.3682C78.579 93.0313 79.2375 92.6832 79.896 92.3351C79.9827 92.2893 80.0693 92.2435 80.156 92.1977C80.373 92.2936 80.5961 92.3885 80.8131 92.4844C79.9517 92.86 79.1118 93.2885 78.2942 93.7384C77.5582 94.1496 76.7437 94.5802 76.2826 95.3228C75.8379 96.0501 76.1677 96.5986 76.4375 96.9748C76.8947 97.6089 78.144 97.7534 78.9878 97.651C79.9305 97.5384 83.8328 97.123 84.9498 96.8119C86.4745 98.2364 88.9032 99.3915 92.6293 98.7477C96.6061 98.0623 95.4442 90.0049 95.0522 89.4982Z" fill="#F4BEB1"/>
<path d="M75.6764 90.5406C77.4735 91.4109 79.3746 92.0755 81.3504 92.3947C81.7315 92.4571 81.79 91.863 81.415 91.7996C79.4902 91.4845 77.641 90.8302 75.8907 89.9772C75.5423 89.8088 75.3341 90.3712 75.6754 90.5345L75.6764 90.5406Z" fill="#0B0F12"/>
<path d="M79.4912 93.1499C80.2486 92.754 81.0905 92.4885 81.9038 92.2403C82.6815 92.0044 83.4786 91.7715 84.2786 91.6324C84.6578 91.5695 84.5593 90.9763 84.1812 91.0454C83.3617 91.1814 82.5474 91.4235 81.7523 91.6686C80.9033 91.9289 80.0247 92.2005 79.2316 92.6086C78.8901 92.7847 79.1374 93.328 79.485 93.1509L79.4912 93.1499Z" fill="#0B0F12"/>
<path d="M163.949 78.3536C163.088 75.8135 160.655 74.634 158.068 74.9127C154.365 75.3139 150.89 77.889 147.758 79.7224C143.778 82.0546 139.853 84.4908 136.001 87.028C133.22 88.8596 130.468 90.7493 127.754 92.6828C126.631 92.2786 125.509 91.8804 124.382 91.4894C120.583 90.1786 116.749 88.9616 112.893 87.8362C110.971 87.2756 109.041 86.7414 107.107 86.2205C105.201 85.7139 103.286 85.1522 101.326 84.8932C99.3991 84.6413 97.4038 84.7338 95.6637 85.6825C89.9203 88.8228 87.6689 99.3697 91.266 104.685C92.2485 106.137 93.5644 107.326 95.0241 108.284C96.604 109.322 98.3665 110.06 100.143 110.695C101.933 111.334 103.758 111.879 105.577 112.426C109.234 113.521 112.928 114.504 116.699 115.116C120.444 115.719 124.267 115.964 128.048 115.537C132.144 115.077 135.962 113.545 139.388 111.286C140.221 110.739 141.044 110.169 141.857 109.581C144.341 107.774 146.699 105.78 148.922 103.652C151.86 100.833 154.555 97.765 157.02 94.5218C157.675 93.6591 158.35 92.7678 159.017 91.8653C160.812 89.4309 162.539 86.8506 163.658 84.1325C164.402 82.3312 164.568 80.1485 163.955 78.3525L163.949 78.3536Z" fill="#0051E9"/>
<path d="M159.285 87.4289C159.234 87.3871 159.184 87.3514 159.134 87.3157C159.134 87.3157 159.106 87.2953 159.091 87.2851C159.077 87.2749 159.042 87.2555 159.041 87.2494C158.935 87.179 158.829 87.1086 158.725 87.0444C158.523 86.9271 158.311 86.824 158.1 86.7271C156.286 88.2535 154.552 89.8799 152.943 91.6174C149.958 94.8338 147.372 98.4111 145.245 102.252C143.939 104.605 142.808 107.061 141.864 109.587C144.347 107.78 146.705 105.786 148.928 103.657C151.866 100.838 154.561 97.7705 157.026 94.5273C157.681 93.6646 158.356 92.7733 159.023 91.8708C159.058 91.7771 159.092 91.6773 159.119 91.5784C159.502 90.365 159.741 89.1188 159.802 87.8582C159.638 87.7032 159.469 87.5554 159.29 87.4218L159.285 87.4289Z" fill="#0B0F12"/>
<path d="M127.773 92.6865C126.573 95.5625 125.358 101.036 127.672 109.524" stroke="#0B0F12" stroke-width="0.0015" stroke-linejoin="round"/>
<path fill-rule="evenodd" clip-rule="evenodd" d="M100.33 84.6124C97.8618 86.2978 94.7328 89.425 93.7327 94.77C92.9214 99.1065 93.9539 104.864 94.773 108.348L95.2254 108.241C94.4182 104.807 93.3891 99.1307 94.1892 94.8551C95.1602 89.6682 98.1962 86.6319 100.593 84.9961L100.33 84.6124Z" fill="#0B0F12"/>
<path fill-rule="evenodd" clip-rule="evenodd" d="M121.725 115.708C122.283 112.683 124.672 110.19 127.881 109.657C131.091 109.124 134.157 110.705 135.662 113.387L136.068 113.159C134.469 110.312 131.213 108.632 127.805 109.198C124.398 109.764 121.86 112.411 121.267 115.623L121.725 115.708Z" fill="white"/>
<path d="M264.409 18.1039C261.791 19.9773 259.394 22.1536 257.21 24.5144C256.118 25.6948 255.072 26.9242 254.081 28.1883C253.153 29.3729 252.921 29.9393 252.135 31.2259C250.369 34.1016 250.463 36.7502 253.006 39.118C254.923 40.9046 258.95 45.2503 261.867 44.8037C264.495 44.3987 267.556 41.9426 268.306 39.3047C268.507 38.5864 268.779 34.7774 268.83 34.0967C268.876 33.4292 269.085 32.7975 269.374 32.1903C270.013 30.8527 270.979 29.6742 271.951 28.564C272.987 27.3866 274.09 26.2674 275.076 25.0543C276.757 22.9907 278.176 20.449 278.092 17.7107C278.049 16.3166 277.569 14.75 276.37 13.9249C275.227 13.1344 273.833 13.2528 272.574 13.6566C271.148 14.1133 269.785 14.836 268.477 15.5495C267.071 16.317 265.719 17.1763 264.416 18.1089L264.409 18.1039Z" fill="white"/>
<path fill-rule="evenodd" clip-rule="evenodd" d="M264.274 18.2937L264.273 18.2938C264.239 18.2687 264.211 18.2345 264.194 18.1933C264.152 18.0934 264.185 17.978 264.273 17.9149C261.643 19.7981 259.234 21.9845 257.039 24.3572C255.943 25.5421 254.892 26.7766 253.898 28.045C252.963 29.239 252.728 29.809 251.936 31.1053C251.024 32.5915 250.598 34.0219 250.723 35.3841C250.848 36.7527 251.527 38.0589 252.847 39.2887C254.004 40.3665 255.925 42.3692 257.91 43.703C259.281 44.6246 260.686 45.22 261.902 45.034L261.902 45.0339C264.608 44.6166 267.757 42.0849 268.529 39.3686C268.529 39.3686 268.529 39.368 268.529 39.3679C268.732 38.643 269.01 34.8009 269.061 34.1145C269.061 34.1138 269.061 34.1132 269.061 34.1132C269.106 33.475 269.308 32.8715 269.584 32.2909C270.213 30.9725 271.168 29.8123 272.126 28.7176C273.164 27.5381 274.268 26.4166 275.256 25.2013C276.971 23.0956 278.41 20.4979 278.324 17.704C278.279 16.2398 277.761 14.601 276.502 13.7343C275.297 12.9013 273.829 13.01 272.503 13.4356C271.063 13.8966 269.686 14.6253 268.366 15.346C266.951 16.118 265.59 16.9824 264.28 17.92C264.192 17.9831 264.159 18.0985 264.201 18.1984C264.217 18.2372 264.242 18.2695 264.274 18.2937ZM264.496 18.3272C264.516 18.3202 264.534 18.3102 264.55 18.2987C265.846 17.371 267.191 16.5169 268.588 15.7539C269.883 15.0475 271.233 14.3308 272.644 13.8784C272.644 13.8784 272.644 13.8784 272.645 13.8783C273.836 13.4964 275.156 13.3684 276.237 14.1163C276.237 14.1169 276.237 14.1169 276.238 14.1168C277.377 14.9004 277.818 16.3943 277.859 17.7184C277.941 20.4004 276.542 22.8866 274.895 24.908C273.911 26.119 272.811 27.236 271.777 28.4112L271.776 28.4113C270.791 29.5376 269.812 30.7338 269.164 32.0904C269.164 32.0904 269.163 32.0905 269.164 32.0911C268.862 32.7249 268.646 33.3842 268.597 34.0809C268.548 34.7546 268.281 38.5294 268.082 39.2424C267.354 41.8019 264.382 44.1811 261.832 44.5743C260.713 44.7456 259.431 44.1649 258.169 43.3174C256.206 41.9977 254.308 40.0143 253.164 38.9483C251.942 37.8103 251.302 36.6082 251.186 35.3418C251.07 34.0686 251.48 32.7369 252.333 31.348L252.333 31.3473C253.113 30.0705 253.343 29.5076 254.264 28.3318C255.25 27.0727 256.293 25.8484 257.38 24.6725C259.541 22.3376 261.911 20.1835 264.496 18.3272ZM264.277 18.2958L264.274 18.2937L264.273 18.2938L264.277 18.2958Z" fill="#0B0F12"/>
<path d="M274.968 45.1361C275.816 43.2799 276.286 41.1534 275.138 39.352C274.485 38.3295 273.418 37.6583 272.279 37.307C270.994 36.9108 269.596 36.9671 268.279 37.1731C265.468 37.6147 262.744 38.576 260.274 39.9727C258.269 41.1036 256.236 42.6727 255.569 44.9764C254.874 47.3789 256.144 50.1465 258.431 51.1618C258.872 51.3588 259.231 50.7588 258.886 50.4957C259.159 50.4377 259.431 50.3737 259.704 50.3158C260.256 50.1989 260.814 50.0749 261.365 49.952C262.485 49.6969 263.602 49.4234 264.711 49.1388C266.934 48.5623 269.139 47.9135 271.326 47.1985C271.976 46.9838 272.618 46.7641 273.258 46.5322C273.267 46.9266 273.883 47.1572 274.133 46.7324C274.261 46.5165 274.382 46.3015 274.507 46.0733C274.661 46.0164 274.809 45.9604 274.963 45.9034C275.341 45.759 275.269 45.2494 274.975 45.1412L274.968 45.1361Z" fill="#0B0F12"/>
<path d="M297.034 84.4146C295.591 77.3903 294.069 70.3793 292.474 63.3865C292.051 61.5214 291.659 59.6511 291.198 57.8176C290.121 53.491 288.685 49.3435 285.602 45.8402C282.616 42.4275 278.388 40.1198 273.79 40.1669C267.467 40.2364 260.079 44.2154 255.996 48.9587C253.4 51.9786 251.937 55.734 251.492 59.6724C251.003 64.0326 251.643 68.419 252.679 72.6518C253.782 77.1374 255.272 81.5335 257.037 85.8024C257.592 87.1429 258.177 88.4721 258.786 89.7911L258.774 89.7931C257.373 89.3785 255.973 88.9701 254.577 88.5483C251.06 87.4986 247.537 86.4498 244.019 85.4001C242.822 85.0396 241.626 84.6853 240.43 84.3309C235.736 82.9299 216.25 76.187 211.551 74.7931C209.388 74.1468 208.927 75.5303 206.655 75.5055C204.609 75.4869 202.652 76.1135 201.095 77.4465C199.692 78.6471 198.703 80.3697 198.442 82.2039C198.266 83.4521 198.392 84.7444 198.804 85.9389C198.871 86.3425 198.957 86.7431 199.072 87.1324C199.88 89.9201 201.807 92.2141 203.639 94.392C205.314 96.3822 207.045 98.3317 208.835 100.221C215.838 107.617 254.96 128.021 259.751 129.927C262.159 130.885 264.614 131.74 267.094 132.485C274.287 134.633 279.833 135.189 286.824 131.917C294.906 128.137 300.426 121.647 301.083 112.552C301.76 103.191 298.891 93.519 297.015 84.4176L297.034 84.4146Z" fill="#FFC900"/>
<path d="M262.538 97.6253C265.269 101.281 268.173 104.808 271.23 108.196C274.295 111.596 277.513 114.851 280.876 117.962C282.754 119.698 284.674 121.384 286.635 123.019C286.978 123.301 287.38 122.738 287.038 122.456C283.546 119.548 280.189 116.474 276.977 113.249C273.765 110.031 270.699 106.663 267.794 103.168C266.169 101.214 264.592 99.2133 263.073 97.1783C262.806 96.8204 262.277 97.2665 262.543 97.6182L262.538 97.6253Z" fill="#0B0F12"/>
<path d="M263.748 98.1351C261.979 95.4253 260.323 92.6402 258.788 89.791C257.387 89.3764 255.987 88.9679 254.591 88.5462C251.074 87.4964 247.55 86.4477 244.033 85.3979C244.128 85.5142 244.23 85.6355 244.331 85.7507C247.035 88.9084 250.24 91.6313 253.77 93.8224C255.537 94.9241 257.392 95.879 259.311 96.6914C260.798 97.318 262.324 97.8438 263.864 98.3043C263.824 98.2482 263.782 98.186 263.747 98.129L263.748 98.1351Z" fill="#0B0F12"/>
<path d="M270.365 133.11C273.412 130.305 276.821 127.904 280.485 125.976C284.125 124.058 288.005 122.597 292.007 121.65C294.281 121.115 296.588 120.745 298.912 120.548C299.358 120.511 299.238 119.827 298.799 119.869C294.636 120.227 290.533 121.134 286.599 122.535C282.666 123.936 278.918 125.847 275.462 128.192C273.513 129.515 271.659 130.985 269.926 132.58C269.598 132.88 270.039 133.416 270.365 133.11Z" fill="white"/>
<path d="M276.37 13.9197C276.37 13.9197 268.826 16.6238 263.638 21.0291C258.451 25.4343 251.44 37.0667 251.44 37.0667" fill="white"/>
<path fill-rule="evenodd" clip-rule="evenodd" d="M276.29 13.7003C276.29 13.7003 268.704 16.4209 263.486 20.8512C258.279 25.2729 251.24 36.9459 251.24 36.9459L251.638 37.1864C251.638 37.1864 258.619 25.5947 263.788 21.2058C268.946 16.8256 276.447 14.138 276.447 14.138L276.29 13.7003Z" fill="#0B0F12"/>
<path fill-rule="evenodd" clip-rule="evenodd" d="M271.886 28.7773C271.886 28.7773 270.508 27.4716 268.77 28.6325C267.147 29.7163 265.45 32.6258 265.185 34.5694C264.923 36.4885 265.038 37.9114 265.038 37.9114L265.502 37.8734C265.502 37.8734 265.391 36.4937 265.645 34.6325C265.895 32.7957 267.494 30.0432 269.027 29.0195C270.445 28.0729 271.568 29.1167 271.568 29.1167L271.886 28.7773Z" fill="#0B0F12"/>
<path d="M206.16 74.1042C205.204 73.0438 203.891 72.3633 202.65 71.7022C200.107 70.3463 197.463 69.1829 194.772 68.153C192.042 67.1109 189.266 66.2145 186.46 65.3985C181.918 64.0791 176.766 62.0755 172.004 62.1184C168.847 62.14 165.672 63.2641 163.007 64.9255C160.467 66.5096 158.286 68.6626 156.69 71.196C155.079 73.757 154.151 76.6821 153.974 79.7025C153.801 82.7096 154.372 85.7692 155.565 88.5306C157.718 93.508 161.634 97.1118 166.881 98.5529C170.437 99.5333 174.198 99.7446 177.894 99.7152C178.459 99.7095 179.03 99.7027 179.592 99.6847C180.931 99.6509 182.27 99.617 183.61 99.5516C184.177 99.5204 184.75 99.4881 185.314 99.4446C187.157 99.3021 189.031 99.0097 190.716 98.221C192.179 97.532 193.403 96.4678 194.204 95.0467C194.729 94.1177 195.046 93.0407 195.032 91.9687C196 89.7783 197.523 87.9734 199.217 86.2971C200.981 84.5464 202.886 82.9232 204.484 81.0053C204.935 80.4654 205.356 79.8991 205.742 79.3073C205.986 78.9273 206.247 78.5321 206.45 78.1215C206.515 78.2112 206.608 78.2836 206.719 78.3092C206.974 78.3674 207.172 78.1964 207.248 77.9702C207.705 76.5998 207.083 75.1259 206.166 74.1032L206.16 74.1042Z" fill="#0051E9"/>
<path d="M182.811 97.7305C180.954 93.7724 178.408 90.1297 175.362 87.0034C173.03 84.6133 170.4 82.5114 167.543 80.7803C168.162 82.619 168.806 84.4537 169.508 86.26C171.12 90.4034 173.139 94.4666 176.08 97.8364C176.655 98.4951 177.263 99.1293 177.901 99.7208C178.466 99.715 179.037 99.7082 179.599 99.6902C180.938 99.6564 182.277 99.6226 183.617 99.5572C183.37 98.9384 183.106 98.3289 182.817 97.7295L182.811 97.7305Z" fill="#0B0F12"/>
<path d="M206.16 74.104C205.206 73.0497 203.893 72.3691 202.652 71.708C202.059 71.3918 201.462 71.0887 200.86 70.7928C198.943 71.507 197.118 72.4761 195.452 73.6826C192.216 76.0296 189.595 79.2044 187.855 82.8047C186.049 86.5354 185.101 90.8526 185.583 95.0014C185.719 96.204 186.099 97.8062 186.641 99.3311C188.044 99.1546 189.437 98.8416 190.72 98.2391C192.183 97.5501 193.413 96.4849 194.208 95.0648C194.726 94.1368 195.05 93.0588 195.035 91.9868C196.004 89.7964 197.526 87.9915 199.221 86.3152C200.985 84.5645 202.89 82.9413 204.488 81.0234C204.938 80.4835 205.36 79.9172 205.745 79.3254C205.99 78.9454 206.245 78.5512 206.453 78.1396C206.518 78.2293 206.612 78.3017 206.723 78.3273C206.978 78.3855 207.176 78.2145 207.251 77.9883C207.709 76.6179 207.087 75.144 206.169 74.1213L206.16 74.104Z" fill="white"/>
<path d="M186.106 89.2661C189.26 90.3635 192.601 90.9209 195.942 90.9067C196.174 90.9058 196.39 90.7694 196.418 90.5197C196.44 90.3088 196.27 90.0417 196.031 90.0436C192.759 90.0528 189.505 89.5311 186.411 88.4551C185.884 88.2724 185.578 89.0772 186.105 89.26L186.106 89.2661Z" fill="#0B0F12"/>
<path d="M191.768 78.0965C194.363 78.7024 196.835 79.8187 198.989 81.3965C199.439 81.7239 199.939 81.0252 199.493 80.6906C197.218 79.02 194.603 77.8771 191.864 77.2385C191.636 77.1884 191.409 77.4145 191.388 77.6254C191.361 77.8812 191.545 78.0454 191.775 78.1016L191.768 78.0965Z" fill="#0B0F12"/>
<path d="M221.757 88.914C221.812 91.8958 221.312 94.8253 220.876 97.763C220.477 98.3131 219.859 98.7173 219.26 99.043C217.974 99.7403 216.597 100.302 215.255 100.883C212.34 102.14 209.37 103.286 206.365 104.301C205.533 104.583 204.699 104.86 203.863 105.124C203.314 105.297 202.755 105.453 202.2 105.627C202.151 105.56 202.078 105.502 201.98 105.475C199.373 104.726 192.55 102.573 189.31 98.7627C189.592 95.1656 190.607 88.9398 192.211 85.695C194.445 81.1769 197.921 77.3575 202.166 74.6545C202.854 74.2198 204.207 73.3983 204.924 73.0278C206.193 73.1376 207.269 73.2982 208.553 73.726C210.902 74.5172 212.868 75.1523 215.012 76.4111C217.039 77.6077 218.788 79.2464 219.947 81.3097C221.248 83.6197 221.709 86.2828 221.762 88.9069L221.757 88.914Z" fill="#FFC900"/>
<path d="M256.572 49.0132C258.427 47.015 260.596 45.3165 262.975 43.9789C265.355 42.6475 267.927 41.6738 270.598 41.1109C272.105 40.7979 273.631 40.6073 275.17 40.5654C275.358 40.5594 275.53 40.4617 275.552 40.2569C275.569 40.0908 275.432 39.8747 275.244 39.8745C272.435 39.9513 269.656 40.4693 267.002 41.4001C264.359 42.3228 261.866 43.6603 259.624 45.3332C258.366 46.271 257.197 47.3261 256.13 48.4708C256.002 48.6053 255.953 48.8019 256.085 48.9559C256.194 49.0823 256.443 49.1416 256.57 49.001L256.572 49.0132Z" fill="#0B0F12"/>
<path d="M260.697 157.499C260.272 157.092 259.773 156.735 259.244 156.465C259.003 154.029 257.714 151.68 255.75 150.221C249.755 145.75 245.895 145.549 239.487 147.449C228.503 150.705 218.675 156.151 216.734 157.177C217.889 153.535 218.952 149.872 219.942 146.182C221.316 141.059 222.538 135.892 223.604 130.695C223.654 130.466 223.704 130.238 223.747 130.005C224.85 124.575 225.784 119.116 226.551 113.629C227.254 108.592 228.081 103.315 227.527 98.2359C225.246 77.307 204.569 85.7984 196.508 97.5738C187.982 110.03 183.829 127.063 181.11 141.759C179.005 153.149 178.047 166.151 183.86 176.484C197.98 201.58 238.54 198.094 256.068 178.514C258.019 176.336 259.643 173.855 260.827 171.182C261.421 169.84 261.905 168.446 262.266 167.022C262.703 165.304 262.972 163.481 262.723 161.712C262.503 160.121 261.863 158.613 260.683 157.489L260.697 157.499Z" fill="#FFC900"/>
<path d="M203.324 169.879C205.175 167.404 207.272 165.12 209.583 163.071C210.224 162.506 210.875 161.958 211.547 161.426C211.896 161.148 211.457 160.617 211.107 160.895C208.669 162.827 206.429 165.002 204.424 167.384C203.852 168.063 203.296 168.765 202.762 169.482C202.494 169.841 203.058 170.243 203.325 169.885L203.324 169.879Z" fill="#0B0F12"/>
<path d="M198.092 179.425C198.729 177.66 199.466 175.935 200.388 174.293C200.48 174.133 200.471 173.927 200.307 173.81C200.165 173.708 199.916 173.724 199.824 173.89C198.873 175.581 198.099 177.35 197.447 179.174C197.297 179.594 197.94 179.839 198.091 179.419L198.092 179.425Z" fill="#0B0F12"/>
<path d="M262.495 156.812C261.253 154.254 259.535 151.931 257.476 149.973C255.804 148.385 253.711 146.904 251.31 146.938C249.737 146.96 248.257 147.772 247.302 148.986C247.195 150.16 247.549 151.307 248.071 152.371C248.214 152.586 248.35 152.802 248.493 153.017C249.535 154.641 250.623 156.232 251.676 157.842C252.847 159.639 253.911 161.505 255.044 163.334C255.182 163.556 255.319 163.778 255.457 164.001C256.034 164.564 256.639 165.105 257.285 165.588C259.181 165.77 261.137 165.514 262.42 164.007C263.203 163.085 263.535 161.868 263.538 160.673C263.541 159.328 263.077 158.01 262.495 156.812Z" fill="#0B0F12"/>
<path d="M181.134 169.033C183.247 169.574 185.298 170.346 187.247 171.335C189.195 172.319 191.035 173.522 192.739 174.891C194.436 176.256 195.992 177.794 197.382 179.468C198.774 181.153 200 182.973 201.019 184.909C202.028 186.827 202.843 188.86 203.411 190.952C203.48 191.217 203.55 191.488 203.619 191.753C203.722 192.182 204.408 192.075 204.298 191.64C203.773 189.465 203.008 187.356 202.016 185.352C201.032 183.361 199.838 181.466 198.467 179.721C197.087 177.958 195.525 176.345 193.821 174.9C192.131 173.465 190.301 172.204 188.353 171.146C186.392 170.082 184.32 169.22 182.169 168.603C181.905 168.528 181.636 168.459 181.373 168.39C181.19 168.345 180.998 168.402 180.929 168.589C180.867 168.75 180.945 168.989 181.128 169.034L181.134 169.033Z" fill="white"/>
<path d="M223.286 131.055C221.01 133.695 219.004 136.561 217.269 139.582C215.541 142.609 214.084 145.798 212.954 149.096C211.815 152.414 210.99 155.844 210.505 159.323C210.348 160.455 210.229 161.594 210.148 162.732C210.831 162.078 211.524 161.448 212.226 160.829C213.679 159.551 215.186 158.333 216.74 157.176C217.895 153.535 218.958 149.871 219.948 146.181C221.322 141.058 222.544 135.891 223.61 130.694C223.504 130.812 223.399 130.936 223.294 131.06L223.286 131.055Z" fill="#0B0F12"/>
<path d="M277.296 156.051C275.541 153.351 273.481 150.86 271.221 148.564C270.094 147.419 268.913 146.321 267.696 145.273C266.559 144.293 265.392 143.318 264.152 142.474C263.119 141.778 261.947 141.15 260.693 141.019C260.016 140.949 259.34 141.005 258.694 141.238C257.941 141.507 257.291 141.986 256.731 142.55C255.638 143.649 254.823 145.06 254.088 146.42C252.939 148.546 251.509 150.794 251.775 153.307C252.057 155.95 254.368 159.123 256.969 159.991C257.68 160.225 258.404 160.155 259.12 160.005C259.782 159.864 260.433 159.661 261.119 159.742C261.785 159.82 262.409 160.056 262.996 160.373C264.306 161.073 265.436 162.092 266.499 163.116C267.628 164.204 268.692 165.353 269.866 166.402C271.851 168.177 274.323 169.709 277.063 169.75C278.455 169.77 280.046 169.362 280.928 168.203C281.77 167.102 281.714 165.704 281.369 164.423C280.979 162.98 280.319 161.581 279.67 160.244C278.965 158.802 278.175 157.413 277.299 156.069L277.296 156.051Z" fill="white"/>
<path fill-rule="evenodd" clip-rule="evenodd" d="M277.518 155.977C277.511 155.959 277.503 155.941 277.492 155.924C275.729 153.212 273.659 150.708 271.388 148.401C270.257 147.252 269.071 146.149 267.849 145.097C266.706 144.111 265.531 143.13 264.284 142.282C264.284 142.281 264.284 142.282 264.284 142.281C263.22 141.565 262.01 140.923 260.719 140.787C260.719 140.787 260.719 140.787 260.719 140.787C260.006 140.714 259.296 140.774 258.617 141.019C257.831 141.3 257.152 141.797 256.568 142.386C255.459 143.5 254.63 144.93 253.885 146.309C252.714 148.475 251.274 150.771 251.546 153.332C251.835 156.053 254.218 159.317 256.897 160.212C256.897 160.212 256.898 160.212 256.898 160.212C257.649 160.459 258.413 160.391 259.17 160.233L259.17 160.232C259.807 160.096 260.433 159.895 261.093 159.973C261.73 160.047 262.326 160.274 262.887 160.577C262.887 160.578 262.887 160.578 262.888 160.578C264.179 161.268 265.291 162.274 266.339 163.283C267.47 164.373 268.537 165.524 269.712 166.575C271.738 168.387 274.265 169.94 277.061 169.982C278.523 170.004 280.188 169.561 281.115 168.344C282.001 167.184 281.958 165.713 281.595 164.362C281.201 162.905 280.536 161.493 279.881 160.142C279.88 160.142 279.88 160.142 279.88 160.142C279.177 158.704 278.39 157.318 277.518 155.977ZM277.079 156.142C277.088 156.17 277.1 156.193 277.116 156.212C277.983 157.543 278.765 158.918 279.463 160.346C280.105 161.67 280.759 163.054 281.146 164.483C281.472 165.695 281.542 167.02 280.745 168.063C279.907 169.162 278.39 169.537 277.068 169.518C274.384 169.477 271.966 167.968 270.022 166.229C268.851 165.181 267.789 164.034 266.661 162.948C265.584 161.91 264.436 160.878 263.107 160.168C262.495 159.837 261.843 159.593 261.148 159.511C260.436 159.427 259.76 159.631 259.073 159.777C258.398 159.919 257.715 159.991 257.044 159.771C254.52 158.927 252.281 155.847 252.008 153.283C251.746 150.816 253.166 148.616 254.293 146.53C255.018 145.19 255.82 143.797 256.898 142.714C257.433 142.174 258.053 141.714 258.774 141.456C258.774 141.456 258.774 141.456 258.774 141.456C259.387 141.235 260.028 141.184 260.671 141.25C261.887 141.377 263.022 141.992 264.023 142.667C265.255 143.505 266.415 144.474 267.545 145.448C268.758 146.493 269.934 147.587 271.056 148.727C273.296 151.002 275.337 153.47 277.079 156.142ZM277.528 156.021C277.533 156.063 277.527 156.105 277.51 156.144C277.481 156.209 277.426 156.257 277.358 156.275C277.346 156.29 277.338 156.299 277.338 156.299C277.416 156.286 277.482 156.235 277.513 156.163C277.533 156.118 277.538 156.068 277.528 156.021ZM277.136 156.233C277.217 156.308 277.338 156.299 277.338 156.299C277.263 156.311 277.188 156.286 277.136 156.233Z" fill="#0B0F12"/>
<path fill-rule="evenodd" clip-rule="evenodd" d="M256.91 151.981C255.71 152.18 254.898 153.316 255.097 154.516C255.296 155.715 256.432 156.528 257.632 156.329C258.832 156.129 259.644 154.994 259.445 153.794C259.246 152.594 258.11 151.782 256.91 151.981ZM256.986 152.439C257.933 152.282 258.829 152.923 258.986 153.87C259.144 154.817 258.503 155.713 257.556 155.87C256.609 156.027 255.713 155.386 255.556 154.44C255.399 153.493 256.04 152.597 256.986 152.439Z" fill="#0B0F12"/>
<path fill-rule="evenodd" clip-rule="evenodd" d="M257.454 141.632C257.454 141.632 255.818 143.179 256.513 145.506C257.169 147.708 261.425 153.526 263.836 156.304C266.24 159.074 273.671 165.798 276.244 167.302C277.855 168.244 279.126 168.563 280.104 168.269C280.78 168.067 281.33 167.578 281.76 166.777L281.35 166.557C280.989 167.229 280.539 167.654 279.971 167.824C279.082 168.091 277.941 167.756 276.479 166.901C273.93 165.411 266.57 158.744 264.188 155.999C261.813 153.263 257.605 147.542 256.958 145.373C256.349 143.33 257.774 141.969 257.774 141.969L257.454 141.632Z" fill="#0B0F12"/>
<path fill-rule="evenodd" clip-rule="evenodd" d="M258.473 148.669L265.225 143.319L264.936 142.955L258.183 148.305L258.473 148.669Z" fill="#0B0F12"/>
<path fill-rule="evenodd" clip-rule="evenodd" d="M262.898 154.644L270.867 148.143L270.573 147.783L262.604 154.284L262.898 154.644Z" fill="#0B0F12"/>
<path fill-rule="evenodd" clip-rule="evenodd" d="M267.455 159.697L275.632 153.539L275.353 153.168L267.176 159.326L267.455 159.697Z" fill="#0B0F12"/>
<path fill-rule="evenodd" clip-rule="evenodd" d="M273.514 165.068L279.847 160.259L279.566 159.889L273.232 164.698L273.514 165.068Z" fill="#0B0F12"/>
<path d="M249.682 147.013C248.278 148.169 247.382 149.776 247.037 151.555C246.684 153.367 246.896 155.286 247.486 157.022C248.113 158.872 249.238 160.539 250.621 161.906C252.043 163.316 253.763 164.513 255.631 165.246C257.862 166.12 260.476 166.195 262.503 164.777C262.869 164.522 262.423 163.993 262.063 164.247C260.402 165.409 258.22 165.401 256.363 164.773C254.579 164.17 252.93 163.093 251.545 161.828C248.915 159.424 247.217 155.936 247.628 152.317C247.84 150.454 248.679 148.731 250.139 147.534C250.482 147.25 250.042 146.72 249.699 147.003L249.682 147.013Z" fill="#0B0F12"/>
<path d="M221.323 86.9127C223.959 89.2776 225.811 92.4072 226.847 95.7728C227.883 99.1322 228.139 102.722 227.757 106.21C227.555 108.097 227.161 109.959 226.561 111.762C226.385 112.287 227.197 112.599 227.366 112.068C228.485 108.665 228.941 105.052 228.725 101.481C228.508 97.8659 227.568 94.2457 225.762 91.0895C224.716 89.2587 223.394 87.6121 221.822 86.2078C221.646 86.0549 221.344 86.1301 221.217 86.3084C221.069 86.5151 221.14 86.7547 221.317 86.9138L221.323 86.9127Z" fill="#0B0F12"/>
<path d="M194.159 102.35C195.366 100.308 196.58 98.272 197.787 96.2306C197.904 96.0289 197.887 95.7741 197.686 95.6252C197.508 95.4977 197.204 95.523 197.081 95.7257C195.874 97.7671 194.66 99.8035 193.453 101.845C193.336 102.047 193.353 102.301 193.554 102.45C193.732 102.578 194.036 102.553 194.159 102.35Z" fill="#0B0F12"/>
<path d="M194.018 83.8243C200.793 86.5952 208.326 89.7681 211.728 96.7497C212.528 98.3888 213.025 100.173 213.109 102C213.198 103.939 212.849 105.882 212.321 107.736C211.37 111.092 209.994 114.349 208.669 117.566C206.081 123.858 203.279 130.067 200.794 136.405C198.527 142.204 196.404 148.187 195.52 154.372C194.826 159.231 194.948 164.546 197.643 168.823C197.95 169.307 198.279 169.773 198.641 170.216C198.918 170.56 199.455 170.119 199.171 169.776C195.977 165.826 195.516 160.587 196.051 155.71C196.731 149.515 198.806 143.509 201.031 137.717C203.483 131.334 206.294 125.099 208.915 118.788C210.239 115.596 211.578 112.383 212.633 109.085C213.779 105.508 214.298 101.783 213.054 98.1507C210.583 90.9516 203.495 87.0513 196.907 84.2683C196.028 83.8989 195.145 83.5366 194.262 83.1743C193.85 83.0038 193.606 83.6538 194.017 83.8182L194.018 83.8243Z" fill="white"/>
<path d="M203.271 173.544C205.997 175.09 209.028 176.013 212.125 176.46C215.459 176.937 218.861 176.875 222.196 176.453C225.71 176.008 229.169 175.151 232.513 173.986C235.856 172.815 239.096 171.322 242.137 169.504C245.03 167.78 247.768 165.767 250.178 163.4C250.453 163.128 250.727 162.85 250.995 162.573C251.124 162.438 251.167 162.243 251.041 162.088C250.931 161.955 250.684 161.908 250.556 162.043C248.286 164.418 245.685 166.464 242.911 168.226C239.966 170.091 236.811 171.639 233.554 172.877C230.291 174.116 226.9 175.038 223.447 175.586C220.165 176.099 216.813 176.273 213.502 175.936C210.434 175.623 207.4 174.87 204.625 173.489C204.304 173.329 203.987 173.162 203.675 172.987C203.509 172.895 203.309 172.903 203.192 173.067C203.089 173.204 203.112 173.458 203.272 173.551L203.271 173.544Z" fill="white"/>
<path d="M199.456 170.131C200.045 169.442 201.083 169.295 201.917 169.552C202.819 169.836 203.495 170.579 203.5 171.552C203.509 172.593 202.746 173.449 201.781 173.766C201.328 173.911 200.793 173.981 200.332 173.818C199.931 173.671 199.607 173.386 199.361 173.043C198.731 172.161 198.765 170.968 199.457 170.137C199.739 169.795 199.176 169.392 198.894 169.734C198.102 170.682 198.009 172.049 198.602 173.125C198.88 173.626 199.272 174.057 199.781 174.324C200.333 174.616 200.936 174.654 201.545 174.541C202.837 174.295 203.942 173.345 204.162 172.02C204.368 170.767 203.676 169.587 202.545 169.059C201.333 168.493 199.79 168.699 198.907 169.738C198.617 170.075 199.181 170.478 199.47 170.141L199.456 170.131Z" fill="white"/>
<path d="M151.68 141.04C150.606 139.415 149.351 137.908 147.935 136.572C147.946 136.489 147.931 136.397 147.892 136.315C147.56 135.641 146.819 135.224 146.082 135.177C145.581 135.147 145.073 135.307 144.664 135.607C144.55 135.488 144.374 135.486 144.222 135.555C141.809 136.691 139.579 138.205 137.532 139.92C135.497 141.628 133.659 143.573 132.07 145.697C130.476 147.828 129.111 150.128 128.039 152.568C127.501 153.795 127.033 155.06 126.636 156.339C126.435 156.988 126.243 157.648 126.103 158.319C125.944 159.062 125.91 159.878 126.346 160.534C126.74 161.129 127.439 161.44 128.139 161.229C128.768 161.043 129.258 160.516 129.639 160.006C130.051 159.46 130.448 158.904 130.846 158.348C130.747 158.962 130.674 159.583 130.627 160.207C130.546 161.383 130.386 162.955 131.538 163.687C132.023 163.996 132.664 163.959 133.114 163.608C133.554 163.265 133.804 162.764 134.035 162.267C134.35 161.587 134.662 160.894 134.961 160.197L134.967 160.234C135.171 161.086 135.463 162.275 136.352 162.674C137.337 163.114 138.291 162.352 138.638 161.453C138.827 160.963 138.898 160.448 139.002 159.935C139.105 159.421 139.221 158.912 139.351 158.406C139.568 157.553 139.804 156.666 140.137 155.838C140.478 154.977 140.954 154.244 141.483 153.497C142.643 151.853 144.015 150.356 145.523 149.031C145.6 148.961 145.677 148.898 145.755 148.835C147.196 147.603 148.791 146.534 150.474 145.658C151.237 145.261 152.136 144.81 152.487 143.966C152.926 142.907 152.227 141.911 151.664 141.055L151.68 141.04Z" fill="#F4BEB1"/>
<path d="M136.296 141.828C134.828 143.096 133.187 144.185 131.441 145.022C130.58 145.435 129.69 145.79 128.783 146.079C128.329 146.223 127.865 146.344 127.401 146.459C126.639 146.642 125.45 146.858 125.034 147.644C124.42 148.795 125.791 150.05 126.764 150.385C128.47 150.969 131.307 150.686 132.876 149.992C134.859 149.11 135.381 148.05 136.842 146.443C136.89 146.391 136.917 146.324 136.92 146.267C137.198 146.202 137.459 146.071 137.686 145.851C137.996 145.561 136.62 141.548 136.297 141.834L136.296 141.828Z" fill="#F4BEB1"/>
<path d="M131.258 158.179C131.666 155.868 132.54 153.637 133.773 151.641C133.976 151.312 133.49 150.959 133.281 151.289C131.994 153.376 131.078 155.695 130.657 158.115C130.588 158.497 131.19 158.561 131.258 158.179Z" fill="#0B0F12"/>
<path d="M135.307 159.863C135.715 157.553 136.589 155.321 137.822 153.326C138.025 152.997 137.539 152.644 137.33 152.974C136.043 155.06 135.127 157.38 134.706 159.8C134.637 160.182 135.238 160.246 135.307 159.863Z" fill="#0B0F12"/>
<path d="M129.335 150.65C129.703 149.879 130.099 149.122 130.571 148.409C131.049 147.689 131.591 147.021 132.156 146.374C132.409 146.081 131.918 145.735 131.664 146.022C131.089 146.683 130.53 147.367 130.05 148.106C129.563 148.847 129.154 149.637 128.771 150.436C128.603 150.784 129.166 150.999 129.335 150.65Z" fill="#0B0F12"/>
<path d="M178.093 100.373C176.752 94.7902 174.564 89.3349 171.506 84.4639C169.483 81.2496 166.834 77.8249 163.359 76.0455C159.289 73.9693 154.666 75.7987 153.854 80.4828C153.642 81.7056 153.635 82.9509 153.652 84.186C153.691 87.1831 154.003 90.2353 154.401 93.198C154.923 97.0636 155.737 100.906 156.931 104.616C157.331 105.85 157.78 107.083 158.287 108.28C155.607 110.874 152.944 113.491 150.279 116.095C148.397 117.934 146.515 119.767 144.634 121.606C142.828 123.37 140.992 125.102 139.239 126.92C136.142 130.142 133.266 134.088 133.177 138.74C133.098 142.693 135.201 146.466 138.186 148.961C141.484 151.719 146.285 153.272 150.469 151.754C152.733 150.932 154.618 149.381 156.413 147.82C158.314 146.172 160.145 144.448 161.937 142.674C163.718 140.914 165.455 139.111 167.176 137.292C168.866 135.51 170.627 133.779 172.205 131.896C181.81 120.448 180.907 112.021 178.105 100.365L178.093 100.373Z" fill="#0051E9"/>
<path fill-rule="evenodd" clip-rule="evenodd" d="M132.974 138.525C133.915 140.788 135.69 143.613 139.013 146.491C139.013 146.491 139.013 146.491 139.014 146.492C143.362 150.255 148.281 151.263 151.568 151.467L151.596 151.004C148.382 150.804 143.57 149.821 139.318 146.14C136.066 143.324 134.325 140.562 133.403 138.347L132.974 138.525Z" fill="#0B0F12"/>
<path fill-rule="evenodd" clip-rule="evenodd" d="M158.26 108.515C161.177 108.944 167.734 110.721 172.377 117.767L172.766 117.512C168.018 110.307 161.311 108.494 158.328 108.055L158.26 108.515Z" fill="#0B0F12"/>
<path fill-rule="evenodd" clip-rule="evenodd" d="M173.897 129.728C172.12 128.639 170.805 126.81 170.436 124.592C169.763 120.536 172.508 116.699 176.564 116.025C177.666 115.842 178.756 115.911 179.765 116.194L179.891 115.746C178.818 115.446 177.66 115.372 176.487 115.567C172.178 116.282 169.262 120.359 169.978 124.669C170.369 127.025 171.766 128.968 173.654 130.124L173.897 129.728Z" fill="white"/>
<path d="M214.064 383.136C215.026 384.403 216.833 384.649 218.099 383.687C219.366 382.725 219.613 380.918 218.65 379.652C217.688 378.385 215.881 378.138 214.615 379.1C213.348 380.063 213.101 381.87 214.064 383.136Z" fill="white"/>
<path fill-rule="evenodd" clip-rule="evenodd" d="M218.971 379.408C217.876 377.967 215.816 377.686 214.374 378.781C212.933 379.876 212.652 381.935 213.747 383.377C214.842 384.818 216.902 385.1 218.343 384.004C219.784 382.909 220.066 380.85 218.971 379.408ZM218.334 379.892C219.161 380.982 218.949 382.54 217.859 383.367C216.769 384.195 215.212 383.983 214.384 382.893C213.556 381.803 213.769 380.246 214.858 379.418C215.948 378.59 217.506 378.802 218.334 379.892Z" fill="#0B0F12"/>
<path d="M198.546 369.833C194.645 366.956 192.358 366.644 187.829 368.37C187.171 368.615 186.604 367.868 187.016 367.3C189.893 363.399 190.206 361.112 188.479 356.583C188.234 355.925 188.982 355.357 189.55 355.77C193.45 358.647 195.737 358.959 200.267 357.233C200.924 356.988 201.492 357.736 201.08 358.303C198.202 362.204 197.89 364.491 199.616 369.02C199.861 369.678 199.114 370.246 198.546 369.833Z" fill="white"/>
<path fill-rule="evenodd" clip-rule="evenodd" d="M198.31 370.155C198.31 370.156 198.311 370.155 198.312 370.156C199.203 370.804 200.377 369.912 199.992 368.88C199.991 368.879 199.992 368.878 199.992 368.877C199.158 366.691 198.805 365.049 199.019 363.479C199.233 361.91 200.014 360.423 201.403 358.54C201.404 358.539 201.403 358.538 201.404 358.538C202.052 357.647 201.16 356.473 200.128 356.858C200.127 356.858 200.126 356.858 200.126 356.858C197.939 357.692 196.297 358.045 194.728 357.831C193.158 357.617 191.671 356.836 189.788 355.447C189.788 355.446 189.787 355.446 189.786 355.446C188.895 354.798 187.721 355.69 188.106 356.722C188.107 356.723 188.106 356.723 188.106 356.724C188.94 358.911 189.293 360.553 189.079 362.122C188.865 363.692 188.084 365.178 186.695 367.062C186.694 367.062 186.695 367.063 186.694 367.064C186.046 367.955 186.938 369.129 187.97 368.744C187.971 368.743 187.972 368.744 187.973 368.743C190.159 367.91 191.801 367.556 193.37 367.771C194.94 367.985 196.427 368.766 198.31 370.155ZM198.782 369.509C196.765 368.021 195.16 367.208 193.479 366.978C191.797 366.749 190.033 367.102 187.69 367.995C187.407 368.1 187.163 367.779 187.341 367.534C188.829 365.517 189.642 363.912 189.871 362.23C190.101 360.549 189.748 358.785 188.855 356.442C188.75 356.159 189.071 355.915 189.316 356.092C191.333 357.581 192.938 358.394 194.619 358.623C196.301 358.853 198.065 358.5 200.408 357.607C200.691 357.502 200.935 357.823 200.757 358.067C199.269 360.085 198.456 361.69 198.227 363.371C197.997 365.053 198.35 366.817 199.243 369.159C199.348 369.443 199.027 369.686 198.782 369.509Z" fill="#0B0F12"/>
<path d="M238.84 364.098C233.682 360.288 230.656 359.867 224.656 362.161C223.788 362.499 223.026 361.497 223.578 360.743C227.389 355.584 227.809 352.558 225.515 346.558C225.177 345.69 226.179 344.928 226.934 345.48C232.093 349.291 235.118 349.712 241.118 347.417C241.987 347.079 242.748 348.081 242.196 348.836C238.385 353.995 237.965 357.02 240.259 363.02C240.597 363.889 239.595 364.65 238.84 364.098Z" fill="white"/>
<path fill-rule="evenodd" clip-rule="evenodd" d="M238.602 364.42C238.602 364.421 238.602 364.421 238.604 364.421C239.683 365.212 241.115 364.119 240.631 362.876C239.515 359.957 239.047 357.762 239.334 355.668C239.621 353.574 240.662 351.586 242.517 349.075C242.518 349.074 242.518 349.074 242.518 349.073C243.308 347.994 242.215 346.562 240.972 347.045C238.053 348.161 235.858 348.63 233.765 348.342C231.67 348.056 229.683 347.015 227.171 345.16C227.17 345.159 227.17 345.159 227.169 345.159C226.09 344.368 224.658 345.461 225.141 346.704C226.258 349.623 226.726 351.818 226.439 353.912C226.152 356.007 225.111 357.994 223.256 360.505C223.255 360.506 223.255 360.506 223.255 360.508C222.464 361.586 223.558 363.019 224.801 362.535C227.72 361.419 229.914 360.95 232.008 361.238C234.103 361.525 236.09 362.566 238.602 364.42ZM239.076 363.776C236.429 361.822 234.325 360.748 232.117 360.445C229.909 360.143 227.591 360.611 224.512 361.788C224.512 361.788 224.511 361.789 224.51 361.789C224.016 361.982 223.586 361.409 223.9 360.979C225.855 358.333 226.929 356.228 227.232 354.021C227.534 351.813 227.066 349.495 225.888 346.416C225.888 346.416 225.887 346.415 225.888 346.413C225.695 345.92 226.267 345.49 226.697 345.804C229.344 347.759 231.448 348.832 233.656 349.135C235.864 349.438 238.182 348.969 241.261 347.792C241.261 347.792 241.262 347.791 241.263 347.791C241.757 347.598 242.186 348.171 241.873 348.601C239.918 351.247 238.844 353.352 238.541 355.559C238.239 357.768 238.707 360.086 239.885 363.164C239.885 363.164 239.885 363.165 239.885 363.167C240.078 363.661 239.506 364.09 239.076 363.776Z" fill="#0B0F12"/>
<path d="M182.04 564.811C182.04 564.811 177.848 570.242 167.79 578.982C167.533 579.204 167.269 579.429 167.004 579.654C166.888 579.758 166.76 579.856 166.635 579.962C156.656 588.327 143.25 596.045 143.25 596.045L36.5396 461.957L24.4961 447.385L89.2642 453.278L182.034 564.822L182.04 564.811Z" fill="url(#paint1_linear_923_25308)"/>
<path d="M167.007 579.654C166.89 579.758 166.763 579.855 166.638 579.961L59.6558 454.919L60.0163 454.614L167.007 579.654Z" fill="white"/>
<path d="M135.745 509.137L108.543 552.417L96.9293 537.83L127.01 498.626L135.745 509.137Z" fill="#0B0F12"/>
<path d="M51.8145 457.837L106.535 474.02L89.2736 453.266L51.8145 457.837Z" fill="#0B0F12"/>
<path d="M159.604 345.758C159.673 359.185 153.609 365.483 153.609 365.483C153.609 365.483 164.593 386.611 148.368 396.642C134.388 405.282 120.449 392.496 120.449 392.496C120.449 392.496 114.519 396.138 105.91 396.281C105.066 396.301 104.192 396.275 103.299 396.217C102.997 396.2 102.681 396.167 102.367 396.144C100.012 395.92 97.5133 395.401 94.9228 394.473C94.7034 394.397 94.4794 394.304 94.2639 394.208C94.2127 394.186 94.1615 394.164 94.0996 394.135C94.0484 394.113 94.0057 394.088 93.9545 394.066C93.9033 394.043 93.852 394.021 93.8093 393.996C89.4974 391.879 86.2524 386.781 83.8391 380.881C78.8315 368.678 77.3513 353.002 77.3513 353.002L83.5131 337.787C83.5131 337.787 95.55 337.523 105.836 341.02C116.122 344.517 123.094 354.185 123.094 354.185C123.094 354.185 119.17 342.584 121.636 333.063C124.113 323.549 129.35 318.812 129.35 318.812L151.322 319.673C151.322 319.673 159.531 329.974 159.606 345.767L159.604 345.758Z" fill="#8900FD"/>
<path d="M89.7432 333.504C89.7432 333.504 96.4651 336.751 99.4835 352.871C100.476 358.16 96.2595 367.99 97.7014 376.989C99.4912 388.217 106.862 398.292 106.862 398.292L90.7514 396.754L83.5857 336.203L89.7432 333.504Z" fill="#0B0F12"/>
<path d="M168.608 290.516C168.608 290.516 168.607 290.579 168.606 290.607C168.613 290.767 168.603 290.933 168.583 291.092C168.465 292.163 167.791 293.248 165.18 295.027C161.525 297.522 147.04 304.825 145.409 305.916C143.781 307.014 143.877 313.702 143.877 313.702L131.556 311.07C131.556 311.07 132.138 301.434 133.836 299.052C135.525 296.672 139.113 295.469 142.601 293.995C146.098 292.519 149.462 289.814 150.916 289.747C152.371 289.68 153.401 290.92 152.034 292.518C150.667 294.116 144.458 297.227 144.458 297.227C144.458 297.227 151.481 295.459 153.988 294.738C156.498 294.025 161.954 291.506 162.976 290.841C167.472 287.912 168.57 289.234 168.6 290.518L168.608 290.516Z" fill="#B35F4F"/>
<path d="M168.607 290.608C168.614 290.768 168.605 290.934 168.584 291.093C167.879 290.822 167.016 290.738 166.017 291.089C163.96 291.806 162.11 293.019 160.322 294.197C158.187 295.595 155.979 297.058 153.377 297.696C152.057 298.025 150.692 298.258 149.366 298.471C148.554 298.608 147.723 298.742 146.924 298.894C144.203 299.429 142.005 300.157 140.102 301.945C137.996 303.922 138.068 306.668 138.067 306.695C138.071 306.812 137.996 306.904 137.895 306.931L137.836 306.947C137.703 306.956 137.602 306.848 137.593 306.715C137.586 306.59 137.517 303.717 139.782 301.597C141.773 299.732 144.047 298.983 146.845 298.437C147.651 298.274 148.49 298.138 149.305 298.008C150.619 297.789 151.987 297.565 153.282 297.243C155.817 296.623 157.976 295.182 160.082 293.81C161.893 292.617 163.767 291.389 165.88 290.647C166.938 290.281 167.868 290.346 168.626 290.611L168.607 290.608Z" fill="#0B0F12"/>
<path d="M102.093 539.39L92.5753 538.442L84.707 537.645L84.4874 536.06L83.3059 527.523L92.9995 508.382L98.2168 498.075L118.09 516.887L113.863 522.825L102.093 539.39Z" fill="#B35F4F"/>
<path d="M86.1307 338.111C86.1307 338.111 91.0879 341.717 93.2152 355.068C94.1007 360.63 93.752 364.564 93.2652 367.551C92.6724 371.217 91.7988 373.305 91.7988 373.305C91.7988 373.305 97.4391 389.53 91.6089 405.975C87.3879 417.866 84.3111 420.295 84.3111 420.295L60.5247 413.68L72.1116 328.075L81.2872 329.532L86.1262 338.094L86.1307 338.111Z" fill="#8900FD"/>
<path d="M76.4638 405.831L76.2264 415.807L67.0566 410.988L70.2319 402.758L76.4638 405.831Z" fill="#0B0F12"/>
<path d="M159.424 455.739C153.281 468.211 121.508 520.54 121.508 520.54C121.508 520.54 116.527 519.091 103.125 508.293C102.56 507.84 102.014 507.39 101.468 506.941C101.341 506.84 101.212 506.73 101.085 506.629C88.9602 496.579 82.2176 488.53 82.2176 488.53L106.807 456.337C106.807 456.337 76.1752 460.359 65.5542 460.748C49.4028 461.335 41.9323 455.479 41.9323 455.479L47.4136 436.634L67.6567 412.652C67.6567 412.652 139.867 404.493 157.047 414.119C174.227 423.745 165.571 443.283 159.431 455.764L159.424 455.739Z" fill="url(#paint2_linear_923_25308)"/>
<path d="M143.379 429.442C147.287 441.689 114.758 488.538 101.466 506.932C101.339 506.831 101.21 506.721 101.083 506.62C114.273 488.28 146.711 441.465 142.92 429.584C142.518 428.328 141.744 427.534 140.536 427.145C123.704 421.754 53.1532 433.993 52.5552 434.154C52.4288 434.188 52.3005 434.114 52.2664 433.988C52.2323 433.861 52.3062 433.733 52.4325 433.699C53.0306 433.538 123.765 421.277 140.687 426.698C142.024 427.133 142.932 428.054 143.37 429.444L143.379 429.442Z" fill="white"/>
<path d="M85.8877 338.818C85.8877 338.818 82.6101 337.352 78.5252 335.607C77.7166 335.256 76.8828 334.912 76.036 334.553C71.958 332.833 67.587 331.066 64.9748 330.226C59.0586 328.324 57.9647 328.221 58.3349 326.378C58.7075 324.542 59.1876 321.196 63.4879 321.193C65.0328 321.192 67.6211 321.542 70.5002 322.166C73.2585 322.778 76.2922 323.641 78.9472 324.741C81.2332 325.679 83.2409 326.791 84.5504 328.028C88.9573 332.207 85.8832 338.801 85.8832 338.801L85.8877 338.818Z" fill="#8900FD"/>
<path d="M78.5247 335.608C79.1065 337.9 79.7802 339.661 79.7802 339.661C79.7802 339.661 77.9615 337.206 76.0355 334.554C74.0875 331.853 72.0382 328.945 71.709 328.193C71.0903 326.77 70.8153 323.907 70.502 322.176C73.2602 322.787 76.2939 323.65 78.949 324.75C78.5217 325.678 78.1207 326.772 77.8516 328.019C77.3833 330.169 77.898 333.184 78.5247 335.608Z" fill="#0B0F12"/>
<path d="M74.1112 330.499C74.1112 330.499 79.0879 336.656 85.925 346.731C92.7644 356.814 91.5863 361.794 88.3876 369.669C85.195 377.533 83.778 399.185 80.3794 403.906C76.983 408.635 66.901 406.799 66.901 406.799L74.1006 330.492L74.1112 330.499Z" fill="white"/>
<path d="M82.7598 299.64C81.1221 293.566 74.8763 289.974 68.8031 291.611C62.7298 293.249 59.1371 299.495 60.7748 305.568C62.4125 311.641 68.6583 315.234 74.7315 313.596C80.8048 311.959 84.3975 305.713 82.7598 299.64Z" fill="#B35F4F"/>
<path d="M85.548 305.694C86.3273 308.484 86.6336 311.094 85.2503 313.202C82.6811 317.111 72.8867 315.036 72.8867 315.036L64.1788 305.764L81.2683 296.357C81.2683 296.357 84.0101 300.561 85.4062 305.235C85.4471 305.387 85.4964 305.536 85.5373 305.688L85.548 305.694Z" fill="#B35F4F"/>
<path d="M76.9352 313.927L76.4827 315.667L75.6153 319.018L72.7694 330.077L63.0203 328.74L59.1672 324.068L67.5506 308.244L76.9352 313.927Z" fill="#B35F4F"/>
<path d="M82.7598 299.641C82.7598 299.641 85.5914 300.793 86.096 301.759C86.6005 302.726 83.8909 303.836 83.8909 303.836L82.7598 299.641Z" fill="#B35F4F"/>
<path d="M81.1902 299.179C81.0819 299.046 80.9484 298.919 80.8132 298.82C80.7468 298.775 80.6696 298.723 80.587 298.718C80.2666 298.669 80.0551 299.024 80.0361 299.255C80.0012 299.662 80.2386 300.141 80.4503 300.49C80.592 300.714 80.8141 300.934 81.0804 300.917C81.3299 300.903 81.5355 300.694 81.6051 300.45C81.6662 300.207 81.6127 299.942 81.5154 299.715C81.4356 299.52 81.3328 299.339 81.1986 299.177L81.1902 299.179Z" fill="#0B0F12"/>
<path d="M85.5468 305.694C84.5024 306.211 83.3548 306.412 82.0865 306.031C81.8013 305.945 81.9197 305.479 82.2156 305.571C83.3883 305.933 84.4533 305.727 85.4157 305.241C85.4566 305.393 85.5059 305.542 85.5468 305.694Z" fill="#0B0F12"/>
<path d="M77.3233 297.709C77.3828 297.494 77.5127 297.306 77.6555 297.132C78.0033 296.713 78.4176 296.339 78.9171 296.114C79.337 295.928 80.9974 295.652 80.6466 296.596C80.5718 296.788 80.4137 296.939 80.2596 297.071C79.6574 297.586 78.9645 297.999 78.2489 298.327C78.0559 298.415 77.8268 298.504 77.6266 298.432C77.3858 298.343 77.2619 298.051 77.3016 297.796C77.3032 297.769 77.311 297.731 77.321 297.701L77.3233 297.709Z" fill="#0B0F12"/>
<path d="M75.3579 291.805C75.3579 291.805 73.201 293.624 72.428 295.549C71.655 297.475 73.4976 301.225 73.4976 301.225L71.7559 302.607C71.7559 302.607 69.7698 301.977 68.3852 303.444C66.9923 304.913 68.7596 307.915 70.4259 308.532C71.4999 308.929 72.2419 309 72.2419 309L62.0753 318.545L47.9027 310.521L58.7789 300.088C58.7789 300.088 59.7137 295.345 65.1109 292.273C70.9709 288.939 75.3556 291.796 75.3556 291.796L75.3579 291.805Z" fill="#0B0F12"/>
<path d="M76.4829 315.663L75.6155 319.015L72.1973 314.28L76.4829 315.663Z" fill="#0B0F12"/>
<path d="M75.8345 333.234C75.8345 333.234 77.9518 326.275 73.0066 322.747C68.0637 319.228 55.4677 318.323 51.1994 318.914C46.9334 319.513 46.9237 322.895 46.8143 324.768C46.7049 326.641 47.7939 326.591 53.9252 327.649C60.0459 328.7 75.8345 333.234 75.8345 333.234Z" fill="#8900FD"/>
<path d="M75.8351 333.235C75.8351 333.235 74.8366 362.672 62.8255 384.679C55.4389 398.201 38.9452 408.242 38.9452 408.242C38.9452 408.242 38.5712 420.225 33.8423 429.126C29.111 438.019 18.3429 443.055 18.3429 443.055C18.3429 443.055 20.0624 450.236 14.3133 459.711C6.82677 472.058 -3.09257 471.127 -3.09257 471.127L-21.1441 464.031C-21.1441 464.031 -27.9002 454.793 -24.7133 444.094C-21.5325 433.405 -13.2768 428.468 -13.2768 428.468C-13.2768 428.468 -16.2984 419.072 -10.4002 407.235C-4.49368 395.396 4.54179 391.54 4.54179 391.54C4.54179 391.54 2.6161 380.747 13.37 359.54C13.4293 359.425 13.4947 359.299 13.5539 359.183C15.2067 355.964 16.8765 353.209 18.5115 350.862C27.4893 338.013 35.6314 337.245 35.6314 337.245C35.6314 337.245 36.423 333.345 40.8054 329.525C45.1877 325.705 47.8449 325.54 47.8449 325.54L58.4773 326.233L75.8497 333.222L75.8351 333.235Z" fill="#8900FD"/>
<path d="M44.041 358.116L40.9868 366.828C40.9868 366.828 31.364 362.005 24.3077 360.365C20.6541 359.516 16.774 359.234 13.5351 359.186C15.1879 355.966 16.8577 353.212 18.4927 350.864C22.8061 351.111 27.9721 351.805 32.8537 353.489C41.9778 356.631 44.041 358.116 44.041 358.116Z" fill="white"/>
<path d="M151.313 319.668C151.313 319.668 153.862 312.836 150.526 311.187C147.19 309.539 130.828 309.713 129.367 310.929C127.906 312.146 127.655 318.286 129.462 320.699C131.269 323.112 150.824 323.586 150.824 323.586L151.302 319.662L151.313 319.668Z" fill="#8900FD"/>
<path d="M73.4317 330.684C73.4317 330.684 78.5544 335.573 81.3796 348.329C84.2134 361.083 73.7621 381.602 73.7621 381.602C73.7621 381.602 80.0964 399.764 71.1461 418.244C64.3526 432.256 53.9541 439.433 53.9541 439.433C53.9541 439.433 54.4136 450.252 46.2325 459.587C38.0514 468.923 25.3086 472.233 25.3086 472.233L8.21612 462.628L42.6986 372.16L73.4317 330.684Z" fill="#8900FD"/>
<path d="M25.306 472.233C25.306 472.233 23.8438 477.299 22.1868 477.989C20.5297 478.68 1.41492 467.977 1.41492 467.977L5.4119 458.17L16.2872 459.295L25.3037 472.224L25.306 472.233Z" fill="#8900FD"/>
<path d="M119.058 453.124L107.063 456.359C106.962 456.386 106.86 456.341 106.801 456.258C106.743 456.174 106.749 456.064 106.817 455.982L119.463 440.284C119.544 440.181 119.694 440.167 119.797 440.248C119.9 440.328 119.913 440.479 119.833 440.582L107.64 455.716L118.927 452.672C119.054 452.638 119.182 452.712 119.216 452.838C119.25 452.964 119.176 453.093 119.05 453.127L119.058 453.124Z" fill="#0B0F12"/>
<path d="M5.1038 469.322C4.99429 469.351 4.88119 469.3 4.82639 469.198C4.76705 469.078 4.81107 468.94 4.9306 468.88C4.99345 468.845 11.2948 465.574 15.4595 458.668C19.6242 451.762 19.6305 442.571 19.6331 442.48L19.6359 442.289L19.8213 442.239C19.9269 442.229 30.2755 439.926 37.04 428.822C41.3828 421.705 42.1987 409.585 42.2006 409.458C42.1827 409.291 42.186 409.236 44.1056 408.212C44.311 408.103 44.4704 408.024 44.508 407.996C46.3301 406.845 48.1443 405.497 49.8879 403.988C55.4 399.23 59.6873 393.348 61.9614 387.44C64.3744 381.142 65.485 373.532 64.9991 366.57C63.8941 350.811 51.8354 338.63 36.3229 337.599C36.1936 337.589 36.0922 337.481 36.1002 337.343C36.1105 337.214 36.2187 337.112 36.3564 337.12C52.106 338.159 64.3586 350.523 65.4767 366.532C65.9723 373.564 64.8546 381.247 62.4131 387.607C60.1151 393.594 55.7802 399.534 50.2098 404.344C48.4432 405.868 46.6144 407.229 44.7693 408.395C44.7317 408.423 44.5639 408.505 44.3355 408.629C43.9416 408.844 42.9209 409.381 42.6809 409.563C42.59 410.835 41.5901 422.273 37.4571 429.062C31.087 439.517 21.5619 442.294 20.1231 442.655C20.1016 444.016 19.7868 452.432 15.885 458.906C11.6527 465.929 5.23176 469.26 5.16891 469.295L5.11838 469.309L5.1038 469.322Z" fill="#0B0F12"/>
<path d="M19.8114 442.74C18.8259 443.006 12.1869 444.489 1.43552 439.635C-8.38964 435.2 -13.4365 428.682 -13.4799 428.621C-13.5622 428.517 -13.548 428.369 -13.433 428.293C-13.3287 428.21 -13.1803 428.224 -13.0957 428.337C-13.05 428.406 -8.06642 434.824 1.64563 439.208C12.9113 444.293 19.7393 442.271 19.8006 442.264C19.9269 442.23 20.0553 442.304 20.0955 442.419C20.1295 442.546 20.0664 442.68 19.9401 442.714L19.8221 442.746L19.8114 442.74Z" fill="#0B0F12"/>
<path d="M41.425 410.066C38.8642 410.757 31.9703 411.73 21.4508 406.597C10.2139 401.115 6.11151 394.514 4.76794 392.346C4.57828 392.045 4.43206 391.804 4.35199 391.709C4.2635 391.615 4.27542 391.458 4.36903 391.37C4.46263 391.281 4.61945 391.293 4.70794 391.387C4.81394 391.512 4.95564 391.735 5.17805 392.091C6.50411 394.227 10.5478 400.745 21.6671 406.159C34.7234 412.524 42.2635 409.289 42.3348 409.252C42.4543 409.192 42.5972 409.253 42.6481 409.375C42.6991 409.497 42.6466 409.637 42.5248 409.688C42.4597 409.715 42.0881 409.878 41.4227 410.058L41.425 410.066Z" fill="#0B0F12"/>
<path d="M75.4298 334.021C75.3539 334.041 75.2691 334.028 75.2065 333.964C75.1721 333.937 71.795 330.863 64.891 328.414C55.8994 325.228 47.4669 325.857 47.3781 325.863C47.2449 325.872 47.1289 325.776 47.1201 325.643C47.1113 325.51 47.2065 325.394 47.3397 325.385C47.4285 325.379 55.9581 324.742 65.0499 327.965C72.0541 330.449 75.4999 333.577 75.5281 333.615C75.625 333.706 75.6299 333.858 75.547 333.953C75.5117 333.99 75.4719 334.01 75.4298 334.021Z" fill="#0B0F12"/>
<path d="M73.115 381.723C73.115 381.723 73.0476 381.741 73.0071 381.725L64.3358 379.961C64.2104 379.932 64.1235 379.81 64.1507 379.677C64.1801 379.551 64.3013 379.464 64.4351 379.492L73.1063 381.256C73.2317 381.285 73.3186 381.406 73.2915 381.54C73.2721 381.636 73.2076 381.698 73.1234 381.721L73.115 381.723Z" fill="#0B0F12"/>
<path d="M55.7465 440.758C55.6707 440.778 55.5942 440.763 55.5339 440.707C55.4866 440.665 50.8271 436.789 45.0741 433.985C40.9846 431.989 36.0113 431.071 35.9623 431.057C35.8308 431.038 35.7501 430.906 35.7711 430.783C35.7898 430.652 35.9217 430.571 36.0448 430.592C36.0937 430.606 41.1328 431.533 45.2842 433.558C51.0884 436.385 55.7952 440.302 55.8426 440.343C55.9456 440.424 55.959 440.574 55.8699 440.679C55.8346 440.716 55.797 440.744 55.7465 440.758Z" fill="#0B0F12"/>
<path d="M25.368 472.461C25.3175 472.475 25.254 472.474 25.2005 472.443L10.586 465.125C10.4706 465.066 10.4236 464.925 10.4828 464.81C10.542 464.695 10.683 464.647 10.7983 464.707L25.4152 472.033C25.5305 472.092 25.5776 472.233 25.5183 472.348C25.4898 472.41 25.4293 472.454 25.3703 472.47L25.368 472.461Z" fill="#0B0F12"/>
<path d="M92.2778 373.239C92.44 373.773 93.5308 377.383 94.018 382.004C94.4593 386.087 94.3272 392.131 94.2616 394.2C94.1592 394.155 94.0568 394.111 93.9522 394.058C93.9573 393.875 94.0627 386.962 93.5427 382.051C93.0158 377.115 91.8038 373.357 91.7924 373.315L91.772 373.239L91.7898 373.171C91.8299 373.052 95.1534 361.15 92.5567 351.956C89.9493 342.756 86.2188 338.304 86.1799 338.26C86.0891 338.158 86.1117 338.008 86.2076 337.928C86.3012 337.839 86.4496 337.853 86.5381 337.947C86.577 337.991 90.3723 342.515 93.0093 351.825C95.5401 360.775 92.5408 372.237 92.2671 373.232L92.2778 373.239Z" fill="#0B0F12"/>
<path d="M91.4784 373.589L91.4278 373.602L87.6752 373.693C87.5397 373.693 87.4406 373.593 87.4318 373.46C87.4314 373.325 87.5288 373.217 87.6643 373.217L91.417 373.127C91.5524 373.126 91.6516 373.226 91.6604 373.359C91.6624 373.467 91.5901 373.568 91.4891 373.595L91.4784 373.589Z" fill="#0B0F12"/>
<path d="M85.9681 338.218C85.926 338.229 85.8816 338.232 85.8304 338.21C82.9813 337.261 79.3243 336.802 79.2884 336.802C79.1568 336.784 79.0615 336.665 79.0825 336.542C79.1013 336.41 79.2117 336.317 79.3433 336.336C79.3815 336.344 83.0829 336.8 85.9809 337.763C86.1001 337.803 86.1725 337.937 86.1346 338.065C86.1107 338.143 86.0439 338.198 85.9681 338.218Z" fill="#0B0F12"/>
<path d="M120.345 391.947L120.32 391.953C120.189 391.971 120.067 391.886 120.049 391.755C120.035 391.669 118.743 383.126 119.255 373.563C119.765 363.992 123.156 354.991 123.186 354.901C123.213 354.831 123.271 354.779 123.347 354.759C123.444 354.751 123.499 354.754 123.557 354.801C123.639 354.87 132.324 361.744 140.822 363.672C149.334 365.615 152.841 365.32 152.875 365.311C153.008 365.302 153.124 365.397 153.131 365.522C153.14 365.655 153.044 365.771 152.92 365.778C152.778 365.789 149.306 366.083 140.718 364.125C132.949 362.353 125.04 356.516 123.527 355.361C122.939 357.001 120.191 365.07 119.738 373.578C119.229 383.085 120.518 391.584 120.532 391.67C120.547 391.793 120.477 391.902 120.36 391.934L120.345 391.947Z" fill="#0B0F12"/>
<path d="M132.835 367.525C132.767 367.543 132.702 367.534 132.635 367.488C132.601 367.461 129.175 365.078 126.744 361.523C124.323 357.974 123.197 355.106 123.188 355.072C123.137 354.95 123.2 354.816 123.322 354.765C123.444 354.714 123.578 354.777 123.629 354.899C123.636 354.924 124.742 357.753 127.132 361.255C129.518 364.741 132.869 367.082 132.901 367.1C133.01 367.17 133.034 367.326 132.962 367.427C132.929 367.472 132.883 367.503 132.824 367.519L132.835 367.525Z" fill="#0B0F12"/>
<path d="M150.65 319.865C150.608 319.876 150.553 319.873 150.504 319.859C150.463 319.843 146.272 318.307 139.596 318.58C132.892 318.852 129.49 319.67 129.456 319.679C129.33 319.713 129.199 319.631 129.165 319.505C129.131 319.378 129.232 319.252 129.339 319.214C129.373 319.205 132.818 318.375 139.574 318.098C146.35 317.825 150.631 319.391 150.671 319.407C150.793 319.456 150.856 319.592 150.808 319.714C150.782 319.784 150.715 319.838 150.648 319.856L150.65 319.865Z" fill="#0B0F12"/>
<path d="M59.5823 297.839C57.99 293.307 60.3746 288.345 64.9082 286.761C69.4418 285.177 74.4018 287.554 75.9857 292.087L59.5823 297.839Z" fill="#8900FD"/>
<path d="M77.5257 289.622L56.8047 296.891L58.1505 300.728L78.8715 293.459L77.5257 289.622Z" fill="#8900FD"/>
<path fill-rule="evenodd" clip-rule="evenodd" d="M173.943 226.68C171.89 223.081 167.301 221.826 163.702 223.878L116.836 250.608C113.237 252.66 111.981 257.249 114.034 260.848L128.109 285.527C130.161 289.126 134.75 290.381 138.349 288.329L185.216 261.6C188.815 259.547 190.071 254.958 188.018 251.36L173.943 226.68Z" fill="#0B0F12"/>
<path fill-rule="evenodd" clip-rule="evenodd" d="M133.184 264.803C132.892 264.289 132.237 264.11 131.724 264.403L125.377 268.023C124.864 268.316 124.685 268.97 124.978 269.483L126.985 273.003C127.278 273.516 127.932 273.695 128.446 273.403L134.792 269.783C135.305 269.49 135.484 268.836 135.192 268.323L133.184 264.803Z" fill="white"/>
<path d="M167.292 236.274C169.427 235.698 170.691 233.501 170.115 231.366C169.539 229.231 167.342 227.967 165.207 228.543C163.072 229.118 161.808 231.316 162.384 233.45C162.96 235.585 165.157 236.849 167.292 236.274Z" fill="#06B50F"/>
</g>
<defs>
<radialGradient id="paint0_radial_923_25308" cx="0" cy="0" r="1" gradientUnits="userSpaceOnUse" gradientTransform="translate(7.35289 30.4102) rotate(-55.792) scale(17.1031 16.1143)">
<stop stop-color="#4882D1"/>
<stop offset="1" stop-color="#6747ED"/>
</radialGradient>
<linearGradient id="paint1_linear_923_25308" x1="47.2144" y1="531.6" x2="164.552" y2="499.959" gradientUnits="userSpaceOnUse">
<stop stop-color="#61FFD6"/>
<stop offset="1" stop-color="#00B000"/>
</linearGradient>
<linearGradient id="paint2_linear_923_25308" x1="48.3008" y1="479.062" x2="171.906" y2="445.731" gradientUnits="userSpaceOnUse">
<stop stop-color="#61FFD6"/>
<stop offset="0.1" stop-color="#5CFBCC"/>
<stop offset="0.26" stop-color="#50F1B2"/>
<stop offset="0.47" stop-color="#3DE187"/>
<stop offset="0.72" stop-color="#22CC4C"/>
<stop offset="0.99" stop-color="#00B001"/>
<stop offset="1" stop-color="#00B000"/>
</linearGradient>
<clipPath id="clip0_923_25308">
<rect width="276" height="500" fill="white" transform="translate(0 0.255127)"/>
</clipPath>
</defs>
</svg>
